<?xml version="1.0" standalone="no"?>
<!DOCTYPE svg PUBLIC "-//W3C//DTD SVG 1.1//EN" "http://www.w3.org/Graphics/SVG/1.1/DTD/svg11.dtd" >
<svg xmlns="http://www.w3.org/2000/svg">
<metadata>Generated by IcoMoon</metadata>
<defs>
<font id="icons" horiz-adv-x="1024">
<font-face units-per-em="1024" ascent="960" descent="-64" />
<missing-glyph horiz-adv-x="1024" />
<glyph unicode="&#x20;" horiz-adv-x="512" d="" />
<glyph unicode="&#xe900;" glyph-name="phone" d="M186.768 956.615l-124-124c-68-68-82.769-173.846-34.154-256.923 54.154-92.922 98.462-161.538 284-346.769 185.231-185.537 235.693-210.767 327.077-264.306 83.385-48.616 188.922-33.847 256.616 34.154l124.306 123.999-239.998 239.692-97.539-97.538c-11.692 5.231-29.23 14.462-49.538 27.385-41.846 26.769-95.385 67.692-142.462 115.077-47.384 47.076-93.538 105.846-125.538 153.231-15.692 23.384-28.307 44.615-35.077 58.462-0.308 0.615-0.308 0.615-0.615 1.23l96.615 96.615-239.692 239.693zM186.768 845.231l128.308-128.308-56.308-56.615c-11.692-11.692-12.923-24.615-12.615-32 0-7.077 1.23-12 2.462-16.616 2.77-9.538 6.461-17.846 11.077-27.692 9.539-19.076 23.385-41.846 40.616-67.692 34.462-51.077 83.077-112.924 134.769-164.923 52-51.692 109.231-95.385 156.307-125.231 23.385-15.076 44-26.461 61.538-34.154 8.923-4 16.924-7.077 26.462-8.923 4.615-0.923 9.846-1.538 16.923-0.923 7.077 0.308 18.154 2.77 28 12.616l56.308 56.307 128.618-128.307-68.616-68.616c-42.772-42.772-108.926-52.003-161.234-21.536-92.923 54.461-128.308 68.923-311.385 251.69-182.769 183.076-217.846 239.384-271.384 331.077-30.461 52.307-21.231 118.462 21.539 161.231l68.615 68.615z" />
</font></defs></svg>